absl-py==0.9.0
appdirs==1.4.4
argon2-cffi==20.1.0
astor==0.8.1
astroid==2.4.2
astunparse==1.6.3
attrs==19.3.0
awscli==1.18.115
backcall==0.2.0
beautifulsoup4==4.9.1
bleach==3.1.5
botocore==1.17.38
cachetools==4.1.1
certifi==2020.6.20
cffi==1.14.1
chardet==3.0.4
click==7.1.2
colorama==0.4.3
cycler==0.10.0
Cython==0.29.21
decorator==4.4.2
defusedxml==0.6.0
distlib==0.3.1
docutils==0.16
entrypoints==0.3
fake-useragent==0.1.11
filelock==3.0.12
future==0.18.2
gast==0.3.3
google-auth==1.20.1
google-auth-oauthlib==0.4.1
google-pasta==0.2.0
grpcio==1.31.0
h5py==2.10.0
idna==2.10
imageio==2.9.0
import-ipynb==0.1.3
importlib-metadata==1.7.0
ipykernel==5.3.4
ipython==7.17.0
ipython-genutils==0.2.0
ipywidgets==7.5.1
isort==5.3.2
jedi==0.17.2
Jinja2==2.11.2
jmespath==0.10.0
joblib==0.16.0
jsonschema==3.2.0
jupyter==1.0.0
jupyter-client==6.1.6
jupyter-console==6.1.0
jupyter-core==4.6.3
jupyter-http-over-ws==0.0.8
jupyterplot==0.0.3
Keras==2.4.3
Keras-Applications==1.0.8
Keras-Preprocessing==1.1.2
kiwisolver==1.2.0
lazy-object-proxy==1.5.1
lrcurve==1.1.0
lxml==4.5.2
Markdown==3.2.2
MarkupSafe==1.1.1
matplotlib==3.3.0
mccabe==0.6.1
mistune==0.8.4
mkl-fft==1.0.15
mkl-random==1.1.0
mkl-service==2.3.0
more-itertools==8.4.0
MouseInfo==0.1.3
nbconvert==5.6.1
nbformat==5.0.7
networkx==2.4
notebook==6.1.1
numpy==1.18.5
oauthlib==3.1.0
opt-einsum==3.3.0
packaging==20.4
pandas==1.1.0
pandocfilters==1.4.2
parso==0.7.1
pascal-voc-writer==0.1.4
pickleshare==0.7.5
Pillow==7.2.0
pluggy==0.13.1
prometheus-client==0.8.0
prompt-toolkit==3.0.5
protobuf==3.12.4
py==1.9.0
pyasn1==0.4.8
pyasn1-modules==0.2.8
PyAutoGUI==0.9.50
pycparser==2.20
PyGetWindow==0.0.8
Pygments==2.6.1
pylint==2.5.3
PyMsgBox==1.0.8
pyparsing==2.4.7
pyperclip==1.8.0
PyQt5==5.15.1
PyQt5-sip==12.8.0
pyqt5-tools==5.15.1.1.7.5
PyRect==0.1.4
pyrsistent==0.16.0
PyScreeze==0.1.26
PySide2==5.15.1
pytesseract==0.3.5
python-dateutil==2.8.1
python-dotenv==0.14.0
PyTweening==1.0.3
pytz==2020.1
PyWavelets==1.1.1
pywin32==228
pywinpty==0.5.7
PyYAML==5.3.1
pyzmq==19.0.2
qrcode==6.1
qtconsole==4.7.5
QtPy==1.9.0
requests==2.24.0
requests-oauthlib==1.3.0
rsa==4.6
s3transfer==0.3.3
scikit-image==0.17.2
scikit-learn==0.23.2
scipy==1.4.1
Send2Trash==1.5.0
shiboken2==5.15.1
six==1.15.0
soupsieve==2.0.1
tensorboard==2.3.0
tensorboard-plugin-wit==1.7.0
tensorflow==2.3.1
tensorflow-estimator==2.3.0
tensorflow-gpu==2.3.0
tensorflow-gpu-estimator==2.3.0
termcolor==1.1.0
terminado==0.8.3
testpath==0.4.4
threadpoolctl==2.1.0
tifffile==2020.7.24
toml==0.10.1
torch==1.5.1
torchvision==0.6.1
tornado==6.0.4
tox==3.19.0
tqdm==4.48.2
traitlets==4.3.3
typed-ast==1.4.1
urllib3==1.25.10
virtualenv==20.0.30
wcwidth==0.2.5
webencodings==0.5.1
Werkzeug==1.0.1
widgetsnbextension==3.5.1
wincertstore==0.2
wrapt==1.12.1
zipp==3.1.0
