qq_0.jpg,0
qq_1.jpg,0
qq_2.jpg,0
qq_3.jpg,0
qq_4.jpg,0
qq_5.jpg,0
qq_6.jpg,0
qq_7.jpg,0
qq_8.jpg,0
qq_9.jpg,0
qq_10.jpg,0
qq_11.jpg,0
qq_12.jpg,0
qq_13.jpg,0
qq_14.jpg,0
qq_15.jpg,0
qq_16.jpg,0
qq_17.jpg,0
qq_18.jpg,0
qq_19.jpg,0
qq_20.jpg,0
qq_21.jpg,0
qq_22.jpg,0
qq_23.jpg,0
qq_24.jpg,0
qq_25.jpg,0
qq_26.jpg,0
qq_27.jpg,0
qq_28.jpg,0
qq_29.jpg,0
qq_30.jpg,0
qq_31.jpg,0
qq_32.jpg,0
qq_33.jpg,0
qq_34.jpg,0
qq_35.jpg,0
qq_36.jpg,0
qq_37.jpg,0
qq_38.jpg,0
qq_39.jpg,0
qq_40.jpg,0
qq_41.jpg,0
qq_42.jpg,0
qq_43.jpg,0
qq_44.jpg,0
qq_45.jpg,0
qq_46.jpg,0
qq_47.jpg,0
qq_48.jpg,0
qq_49.jpg,0
qq_50.jpg,0
qq_51.jpg,0
qq_52.jpg,0
qq_53.jpg,0
qq_54.jpg,0
qq_55.jpg,0
qq_56.jpg,0
qq_57.jpg,0
qq_58.jpg,0
qq_59.jpg,0
qq_60.jpg,0
qq_61.jpg,0
qq_62.jpg,0
qq_63.jpg,0
qq_64.jpg,0
qq_65.jpg,0
qq_66.jpg,0
qq_67.jpg,0
qq_68.jpg,0
qq_69.jpg,0
qq_70.jpg,0
qq_71.jpg,0
qq_72.jpg,0
qq_73.jpg,0
qq_74.jpg,0
qq_75.jpg,0
qq_76.jpg,0
qq_77.jpg,0
qq_78.jpg,0
qq_79.jpg,0
qq_80.jpg,0
qq_81.jpg,0
qq_82.jpg,0
qq_83.jpg,0
qq_84.jpg,0
qq_85.jpg,0
qq_86.jpg,0
qq_87.jpg,0
qq_88.jpg,0
qq_89.jpg,1
qq_90.jpg,0
qq_91.jpg,0
qq_92.jpg,0
qq_93.jpg,0
qq_94.jpg,0
qq_95.jpg,0
qq_96.jpg,0
qq_97.jpg,0
qq_98.jpg,0
qq_99.jpg,0
qq_100.jpg,0
qq_101.jpg,0
qq_102.jpg,0
qq_103.jpg,0
qq_104.jpg,0
qq_105.jpg,0
qq_106.jpg,0
qq_107.jpg,0
qq_108.jpg,0
qq_109.jpg,0
qq_110.jpg,0
qq_111.jpg,0
qq_112.jpg,0
qq_113.jpg,0
qq_114.jpg,0
qq_115.jpg,0
qq_116.jpg,0
qq_117.jpg,0
qq_118.jpg,0
qq_119.jpg,0
qq_120.jpg,0
qq_121.jpg,0
qq_122.jpg,0
qq_123.jpg,0
qq_124.jpg,0
qq_125.jpg,0
qq_126.jpg,0
qq_127.jpg,0
qq_128.jpg,0
qq_129.jpg,0
qq_130.jpg,0
qq_131.jpg,0
qq_132.jpg,0
qq_133.jpg,0
qq_134.jpg,0
qq_135.jpg,0
qq_136.jpg,0
qq_137.jpg,0
qq_138.jpg,0
qq_139.jpg,0
qq_140.jpg,0
qq_141.jpg,0
qq_142.jpg,0
qq_143.jpg,0
qq_144.jpg,0
qq_145.jpg,0
qq_146.jpg,0
qq_147.jpg,0
qq_148.jpg,0
qq_149.jpg,0
qq_150.jpg,0
qq_151.jpg,0
qq_152.jpg,0
qq_153.jpg,0
qq_154.jpg,0
qq_155.jpg,0
qq_156.jpg,0
qq_157.jpg,0
qq_158.jpg,0
qq_159.jpg,0
qq_160.jpg,0
qq_161.jpg,0
qq_162.jpg,0
qq_163.jpg,0
qq_164.jpg,0
qq_165.jpg,0
qq_166.jpg,0
qq_167.jpg,0
qq_168.jpg,0
qq_169.jpg,0
qq_170.jpg,0
qq_171.jpg,0
qq_172.jpg,0
qq_173.jpg,0
qq_174.jpg,0
qq_175.jpg,0
qq_176.jpg,0
qq_177.jpg,0
qq_178.jpg,0
qq_179.jpg,0
qq_180.jpg,0
qq_181.jpg,0
qq_182.jpg,0
qq_183.jpg,0
qq_184.jpg,0
qq_185.jpg,0
qq_186.jpg,0
qq_187.jpg,0
qq_188.jpg,0
qq_189.jpg,0
qq_190.jpg,0
qq_191.jpg,0
qq_192.jpg,0
qq_193.jpg,0
qq_194.jpg,0
qq_195.jpg,0
qq_196.jpg,0
qq_197.jpg,0
qq_198.jpg,0
qq_199.jpg,0
qq_200.jpg,0
qq_201.jpg,0
qq_202.jpg,0
qq_203.jpg,0
qq_204.jpg,0
qq_205.jpg,0
qq_206.jpg,0
qq_207.jpg,0
qq_208.jpg,0
qq_209.jpg,0
qq_210.jpg,0
qq_211.jpg,0
qq_212.jpg,0
qq_213.jpg,0
qq_214.jpg,0
qq_215.jpg,0
qq_216.jpg,0
qq_217.jpg,0
qq_218.jpg,0
qq_219.jpg,0
qq_220.jpg,0
qq_221.jpg,0
qq_222.jpg,0
qq_223.jpg,0
qq_224.jpg,0
